<?xml version="1.0" standalone="no"?>
<!DOCTYPE svg PUBLIC "-//W3C//DTD SVG 20010904//EN"
 "http://www.w3.org/TR/2001/REC-SVG-20010904/DTD/svg10.dtd">
<svg version="1.0" xmlns="http://www.w3.org/2000/svg"
 width="291.000000pt" height="305.000000pt" viewBox="0 0 291.000000 305.000000"
 preserveAspectRatio="xMidYMid meet">
<metadata>
Created by potrace 1.10, written by Peter Selinger 2001-2011
</metadata>
<g transform="translate(0.000000,305.000000) scale(0.100000,-0.100000)"
fill="#fc8c0f" stroke="none">
<path d="M2675 2994 c-55 -13 -121 -31 -148 -40 -26 -9 -61 -14 -77 -12 -16 2
-27 1 -24 -4 3 -4 -1 -8 -8 -9 -25 -1 -53 -8 -108 -24 -30 -10 -64 -18 -75
-20 -11 -2 -20 -4 -20 -5 0 -1 -9 -3 -20 -5 -11 -1 -39 -10 -63 -18 -23 -9
-45 -16 -47 -16 -3 0 -22 -3 -43 -8 -20 -4 -39 -7 -42 -8 -25 -2 -70 -31 -71
-44 0 -9 -2 -26 -3 -39 -2 -13 1 -25 5 -28 5 -2 5 -12 2 -20 -4 -10 2 -17 16
-21 11 -3 19 -9 16 -13 -6 -10 30 -5 139 18 49 11 98 18 110 16 13 -3 15 -2 6
3 -19 8 90 35 145 35 28 0 34 2 21 7 -28 11 -5 21 35 16 19 -2 36 1 41 7 3 7
23 12 42 12 20 0 31 3 25 7 -9 5 61 20 106 23 6 1 12 4 15 7 3 4 14 9 25 13
19 6 20 2 14 -72 -5 -73 -46 -289 -71 -377 -6 -22 -11 -59 -10 -83 1 -23 -2
-41 -6 -38 -4 2 -9 -15 -10 -37 -6 -72 -8 -82 -16 -95 -4 -6 -4 -12 0 -12 3 0
1 -7 -6 -16 -8 -8 -9 -14 -3 -12 5 2 20 -10 34 -25 15 -17 36 -29 52 -30 15
-1 27 -5 27 -9 0 -5 5 -8 11 -8 5 0 8 4 4 9 -3 5 3 12 14 16 21 6 41 52 41 94
0 14 6 46 14 71 7 25 11 51 9 58 -3 6 0 12 5 12 5 0 7 12 4 26 -3 17 -1 25 6
21 6 -5 9 5 8 26 -1 35 18 149 42 242 8 33 14 80 14 104 -1 25 3 51 9 58 6 7
12 30 14 50 1 21 6 55 10 75 9 48 -22 101 -74 127 -35 18 -38 18 -136 -5z
m129 -10 c8 -3 26 -21 40 -39 l25 -33 -30 -173 c-53 -313 -94 -527 -126 -676
-10 -44 -113 -16 -113 31 0 13 25 160 55 327 30 167 60 332 66 367 6 35 9 65
7 68 -3 2 -108 -23 -234 -57 -299 -79 -495 -126 -515 -121 -39 8 -52 97 -16
112 33 16 768 198 799 199 14 1 33 -2 42 -5z"/>
<path d="M2595 2918 c-88 -22 -263 -66 -389 -97 -126 -31 -231 -60 -233 -66
-1 -5 1 -16 6 -24 8 -12 71 1 373 77 200 51 374 92 386 92 13 0 25 -7 28 -15
3 -8 -12 -117 -35 -242 -71 -399 -91 -517 -91 -534 0 -15 28 -35 36 -26 2 2
18 71 34 153 27 133 51 265 106 584 l16 94 -27 23 c-14 13 -31 22 -38 22 -7
-1 -84 -20 -172 -41z"/>
<path d="M127 2500 c-16 -5 -35 -14 -42 -20 -8 -7 -20 -8 -26 -4 -8 4 -9 3 -5
-5 4 -6 -2 -24 -13 -39 -15 -22 -19 -42 -18 -95 2 -37 8 -72 15 -79 6 -6 12
-8 12 -3 0 5 7 -1 16 -13 8 -12 24 -22 35 -22 10 0 19 -4 19 -10 0 -15 75 -12
118 6 58 23 85 59 90 121 3 33 0 58 -8 68 -6 8 -9 19 -6 24 4 6 -17 26 -46 46
-54 36 -86 41 -141 25z m96 -24 c105 -45 115 -187 16 -239 -40 -21 -106 -18
-145 8 -54 35 -69 140 -27 187 26 30 75 58 101 58 12 0 37 -6 55 -14z"/>
<path d="M1185 2422 c-49 -8 -96 -21 -103 -29 -7 -7 -20 -13 -29 -13 -27 0
-167 -72 -197 -101 -15 -15 -35 -25 -42 -22 -9 3 -14 -2 -14 -14 0 -11 -10
-28 -22 -39 -13 -10 -17 -12 -10 -4 6 8 12 19 12 25 0 5 -7 2 -15 -8 -7 -11
-11 -26 -8 -35 4 -10 3 -14 -2 -10 -9 9 -34 -15 -56 -56 -9 -17 -21 -30 -26
-29 -4 1 -9 -10 -10 -24 0 -14 -5 -28 -10 -32 -12 -8 -56 -138 -74 -216 -15
-70 -15 -353 1 -369 5 -5 10 -25 10 -42 0 -18 5 -36 11 -40 7 -4 8 -20 4 -41
-4 -24 -3 -33 5 -28 6 4 17 -9 26 -30 8 -20 30 -58 49 -84 19 -27 35 -52 35
-57 1 -5 12 -22 26 -39 15 -16 23 -23 18 -15 -4 8 15 -9 44 -38 29 -29 56 -50
62 -47 5 3 10 1 10 -5 0 -6 16 -18 35 -26 19 -8 35 -18 35 -22 0 -4 10 -9 22
-9 13 -1 32 -7 43 -12 31 -15 114 -41 133 -41 12 0 14 -3 4 -8 -7 -5 70 -9
170 -11 150 -2 200 2 278 18 97 20 116 25 160 43 57 23 73 34 79 53 3 11 6
178 8 371 3 347 3 351 -18 370 -20 18 -40 19 -286 21 -169 1 -274 -2 -288 -9
-15 -7 -29 -27 -38 -56 -15 -44 -15 -45 15 -78 17 -18 33 -33 37 -32 3 0 87 0
186 -1 l181 -1 12 -32 c6 -17 8 -36 4 -42 -5 -6 -5 -85 -1 -176 5 -110 4 -167
-3 -171 -6 -4 -7 -15 -4 -26 7 -23 -12 -52 -39 -58 -11 -2 -38 -9 -60 -14 -60
-13 -187 -23 -181 -13 3 5 -6 7 -19 4 -38 -7 -193 18 -206 34 -6 8 -15 12 -19
9 -11 -7 -80 26 -80 37 0 5 -4 7 -9 4 -5 -3 -26 9 -47 28 -21 19 -43 32 -48
29 -5 -4 -6 2 -2 13 4 10 4 15 0 12 -7 -8 -34 16 -34 30 0 6 -7 13 -16 16 -8
3 -12 11 -8 17 5 8 3 9 -6 4 -10 -6 -12 -4 -7 9 4 10 3 15 -3 11 -6 -3 -10 -1
-10 6 0 7 -6 20 -13 28 -40 47 -66 154 -74 306 -7 145 37 321 100 389 9 11 17
24 17 28 0 5 10 22 22 38 16 22 24 27 31 18 6 -9 7 -8 4 3 -7 21 11 39 30 32
8 -3 13 0 11 7 -2 7 8 17 22 21 14 4 21 8 15 8 -5 1 26 19 70 40 89 43 184 61
314 61 78 0 217 -21 269 -41 15 -6 28 -10 29 -10 2 0 16 -4 33 -9 19 -6 28 -5
24 1 -3 5 -1 15 5 22 5 7 14 32 20 56 12 55 -1 85 -43 102 -17 7 -33 16 -36
19 -11 15 -163 33 -290 35 -86 1 -168 -3 -225 -13z m380 -23 c42 -5 102 -18
133 -28 l57 -17 -3 -59 c-1 -33 -7 -64 -12 -69 -5 -5 -26 -2 -50 8 -126 50
-371 66 -500 31 -230 -61 -373 -205 -431 -435 -18 -71 -20 -103 -16 -224 4
-120 8 -152 31 -218 69 -195 212 -326 412 -374 129 -32 359 -21 462 22 l32 13
0 265 -1 266 -217 2 -217 3 0 55 0 55 286 3 287 2 6 -22 c3 -13 6 -172 6 -355
0 -393 8 -367 -128 -408 -122 -36 -238 -48 -387 -42 -154 7 -217 22 -345 84
-170 82 -291 230 -352 430 -15 50 -21 107 -25 218 -4 130 -2 162 16 240 41
171 123 303 255 409 89 72 232 132 351 149 64 9 277 7 350 -4z"/>
<path d="M1503 1952 c-7 -5 -17 -29 -22 -55 -7 -38 -5 -52 10 -77 12 -19 27
-30 41 -30 13 -1 101 0 196 0 123 1 172 -2 172 -11 0 -6 7 -8 16 -5 8 3 13 2
10 -3 -5 -8 -8 -1222 -3 -1296 3 -41 37 -57 111 -52 43 2 62 8 72 22 12 15 14
137 14 682 0 594 2 663 16 663 8 0 12 -4 9 -10 -3 -5 1 -10 9 -10 9 0 16 5 16
10 0 6 45 10 115 10 70 0 115 -4 115 -10 0 -5 8 -10 18 -10 14 0 15 2 2 10
-11 7 3 10 45 10 66 0 76 5 94 37 23 44 4 117 -34 127 -32 9 -1009 7 -1022 -2z
m1032 -77 l0 -60 -222 -3 -223 -2 -2 -683 -3 -682 -64 -3 c-45 -2 -67 1 -72
10 -5 7 -9 316 -9 685 l0 673 -217 2 -218 3 -3 54 c-2 37 1 57 10 62 7 5 240
8 518 6 l505 -2 0 -60z"/>
<path d="M433 1087 c2 -6 -3 -18 -12 -25 -9 -8 -11 -11 -4 -8 6 3 0 -18 -15
-46 -14 -29 -25 -61 -24 -70 0 -10 -3 -18 -7 -18 -5 0 -11 -18 -15 -39 -3 -22
-12 -52 -20 -68 -8 -15 -25 -62 -38 -103 -13 -41 -25 -77 -28 -80 -3 -3 -6
-14 -6 -25 -1 -11 -22 -77 -47 -147 -25 -70 -42 -129 -39 -132 3 -4 0 -6 -6
-6 -7 0 -12 -10 -12 -22 0 -13 -9 -42 -20 -66 -34 -75 -36 -107 -7 -142 16
-18 28 -26 32 -19 4 6 -2 19 -14 30 -12 11 -21 21 -21 22 0 6 320 951 323 953
2 2 25 -19 52 -46 l48 -49 -78 -218 c-43 -120 -105 -290 -136 -378 -32 -88
-57 -161 -55 -162 1 -2 159 60 349 136 191 77 356 142 367 146 14 5 32 -5 66
-38 42 -41 51 -67 22 -67 -8 0 -424 -157 -498 -189 -147 -62 -393 -149 -406
-144 -11 4 -15 2 -13 -6 5 -14 7 -14 72 -6 26 4 47 10 47 15 0 4 16 11 35 14
19 4 47 13 62 21 15 8 34 15 41 15 6 0 12 5 12 11 0 5 4 8 9 5 5 -4 30 3 56
14 26 11 61 20 78 21 27 0 29 2 12 9 -19 8 -19 9 2 9 12 1 23 5 25 10 2 4 14
12 27 16 16 5 21 4 17 -4 -5 -7 -1 -9 8 -5 9 3 16 9 16 13 0 8 71 41 87 41 11
0 107 36 135 51 10 5 25 9 33 9 8 0 15 4 15 10 0 5 16 12 35 16 19 3 38 10 41
15 3 5 13 9 23 9 26 0 64 39 55 59 -3 9 -7 21 -7 28 0 7 -4 10 -9 7 -4 -3 -8
2 -8 10 0 9 -7 16 -15 16 -8 0 -15 5 -15 10 0 6 -11 15 -24 21 -19 9 -37 7
-87 -10 -35 -11 -74 -21 -88 -21 -21 0 -23 -2 -11 -10 16 -10 17 -10 -38 -14
-7 -1 -17 -7 -21 -15 -5 -8 -16 -11 -30 -6 -16 5 -20 3 -15 -10 5 -13 2 -15
-20 -9 -20 5 -26 2 -26 -10 0 -9 -6 -13 -14 -10 -13 5 -70 -19 -86 -36 -8 -8
-154 -55 -167 -53 -7 0 -10 -4 -6 -10 4 -6 0 -8 -9 -5 -8 4 -21 2 -29 -4 -11
-7 -9 -8 6 -3 13 4 16 3 10 -3 -14 -14 -63 -23 -69 -14 -6 10 24 103 33 98 3
-2 7 8 8 23 3 43 7 54 25 74 9 11 14 26 11 33 -3 8 2 23 12 34 9 10 14 24 10
30 -4 7 -3 15 4 19 6 4 12 20 15 37 4 34 10 49 43 122 13 29 26 65 28 80 2 15
13 52 24 82 26 69 26 74 -1 101 -13 12 -17 18 -9 14 9 -5 12 -4 7 3 -4 7 -13
12 -19 12 -7 0 -17 8 -24 19 -14 22 -77 48 -70 28z"/>
<path d="M2661 694 c-18 -7 -39 -20 -47 -29 -9 -8 -20 -15 -26 -15 -5 0 -7 -7
-4 -15 3 -9 -1 -18 -9 -21 -10 -4 -13 -15 -10 -35 3 -15 6 -46 7 -69 1 -22 5
-43 10 -46 4 -3 5 -10 2 -16 -4 -7 -2 -8 4 -4 6 3 19 -2 29 -12 26 -28 165
-25 185 3 4 6 13 10 20 10 7 0 13 6 13 13 0 7 5 16 10 20 23 16 26 93 5 140
-18 39 -57 72 -85 72 -9 0 -14 3 -12 8 8 12 -59 10 -92 -4z m114 -28 c40 -17
65 -60 65 -111 0 -75 -56 -125 -140 -125 -34 0 -48 6 -76 34 -29 29 -34 41
-34 83 0 108 83 161 185 119z"/>
<path d="M2679 616 c-50 -24 -45 -106 6 -126 38 -14 90 10 99 46 14 54 -54
106 -105 80z m21 -28 c0 -10 2 -10 8 0 7 9 13 8 27 -8 16 -17 32 -70 17 -55
-3 3 -12 -1 -20 -7 -11 -10 -17 -9 -26 3 -6 9 -15 16 -21 17 -5 0 -11 6 -14
13 -2 6 1 9 6 6 6 -4 9 4 7 18 -1 14 2 25 7 25 5 0 9 -6 9 -12z"/>
</g>
</svg>
